\relax 
\citation{speedtree}
\@writefile{toc}{\contentsline {chapter}{\numberline {1}Uvod}{3}}
\@writefile{lof}{\addvspace {10\p@ }}
\@writefile{lot}{\addvspace {10\p@ }}
\@writefile{toc}{\contentsline {chapter}{\numberline {2}Grafovi}{5}}
\@writefile{lof}{\addvspace {10\p@ }}
\@writefile{lot}{\addvspace {10\p@ }}
\@writefile{toc}{\contentsline {section}{\numberline {2.1}Osnovne definicije}{5}}
\@writefile{lof}{\contentsline {figure}{\numberline {2.1}{\ignorespaces Grafovi \textit  {$H_1$}, \textit  {$H_2$}, \textit  {$H_3$} predstavlaju razli\IeC {\v c}ite podgrafe grafa \textit  {G}.}}{6}}
\@writefile{lof}{\contentsline {figure}{\numberline {2.2}{\ignorespaces Primeri povezanosti kod neusmerenih grafova. Povezani graf \textit  {N} (levo) i nepovezani graf \textit  {K} (desno).}}{7}}
\@writefile{toc}{\contentsline {section}{\numberline {2.2}Izomorfizam grafova}{7}}
\citation{complexity}
\citation{subgraphisomorphism}
\@writefile{toc}{\contentsline {subsection}{\numberline {2.2.1}Definicije i problem izomorfizma podgrafa}{8}}
\@writefile{lof}{\contentsline {figure}{\numberline {2.3}{\ignorespaces Primer dva izomorfna grafa.}}{8}}
\@writefile{toc}{\contentsline {subsection}{\numberline {2.2.2}Algoritam VF2}{9}}
\@writefile{lol}{\contentsline {lstlisting}{\numberline {2.1}Pseudokod algoritama VF2}{9}}
\@writefile{toc}{\contentsline {subsubsection}{Primer izvr\IeC {\v s}avanja algoritma VF2}{10}}
\@writefile{lof}{\contentsline {figure}{\numberline {2.4}{\ignorespaces Grafovi \textit  {G} i \textit  {H}.}}{11}}
\newlabel{vf2example}{{2.4}{11}}
\@writefile{toc}{\contentsline {chapter}{\numberline {3}Metod dvostrukog potiskivanja}{12}}
\@writefile{lof}{\addvspace {10\p@ }}
\@writefile{lot}{\addvspace {10\p@ }}
\@writefile{toc}{\contentsline {section}{\numberline {3.1}Uvod}{12}}
\@writefile{toc}{\contentsline {section}{\numberline {3.2}Teorija kategorija i osnovne definicije}{12}}
\@writefile{toc}{\contentsline {subsubsection}{Usmereni graf kao primer kategorije}{13}}
\@writefile{toc}{\contentsline {section}{\numberline {3.3}Transformacija grafova}{13}}
\@writefile{toc}{\contentsline {subsection}{\numberline {3.3.1}Grafovi sa labelama}{13}}
\@writefile{toc}{\contentsline {subsection}{\numberline {3.3.2}Spoj i produkcijska pravila}{14}}
\@writefile{lof}{\contentsline {figure}{\numberline {3.1}{\ignorespaces Produkcijsko pravilo kod metode dvostrukog potiskivanja.}}{14}}
\newlabel{RuleDefinition}{{3.1}{14}}
\@writefile{toc}{\contentsline {subsubsection}{Problemati\IeC {\v c}ne situacije}{15}}
\@writefile{lof}{\contentsline {figure}{\numberline {3.2}{\ignorespaces Dijagram potiska i komplementa potiska.}}{16}}
\newlabel{PushoutDiagram}{{3.2}{16}}
\@writefile{lof}{\contentsline {figure}{\numberline {3.3}{\ignorespaces Primer grafovske gramatike.}}{17}}
\newlabel{GraphGrammarExample}{{3.3}{17}}
\@writefile{toc}{\contentsline {section}{\numberline {3.4}Grafovske gramatike}{17}}
\@writefile{toc}{\contentsline {chapter}{\numberline {4}Unity kao okru\IeC {\v z}enje za razvoj}{19}}
\@writefile{lof}{\addvspace {10\p@ }}
\@writefile{lot}{\addvspace {10\p@ }}
\@writefile{toc}{\contentsline {section}{\numberline {4.1}Osnovne odlike}{19}}
\@writefile{lof}{\contentsline {figure}{\numberline {4.1}{\ignorespaces Glavni prozor Unity sistema.}}{20}}
\@writefile{toc}{\contentsline {section}{\numberline {4.2}Pisanje dodataka za razvojno okru\IeC {\v z}enje}{20}}
\@writefile{lof}{\contentsline {figure}{\numberline {4.2}{\ignorespaces Primer strukture projekta.}}{21}}
\@writefile{lof}{\contentsline {figure}{\numberline {4.3}{\ignorespaces Prikaz opcije za otvaranje prozora u okviru glavnog menija Unity sistema.}}{21}}
\@writefile{lol}{\contentsline {lstlisting}{\numberline {4.1}Primer instancijacije prozora}{22}}
\citation{houdini}
\@writefile{toc}{\contentsline {chapter}{\numberline {5}Proceduralno generisanje grafovskim gramatikama}{23}}
\@writefile{lof}{\addvspace {10\p@ }}
\@writefile{lot}{\addvspace {10\p@ }}
\@writefile{toc}{\contentsline {section}{\numberline {5.1}Osnovni pojmovi}{23}}
\@writefile{toc}{\contentsline {subsection}{\numberline {5.1.1}Osobine}{24}}
\@writefile{toc}{\contentsline {subsection}{\numberline {5.1.2}Klase}{24}}
\citation{left4dead}
\@writefile{toc}{\contentsline {subsection}{\numberline {5.1.3}Motivi za upotrebu proceduralnog generisanja}{25}}
\@writefile{toc}{\contentsline {section}{\numberline {5.2}Misije i grafovske gramatike}{26}}
\@writefile{toc}{\contentsline {subsection}{\numberline {5.2.1}Misije u video-igrama}{26}}
\@writefile{toc}{\contentsline {subsection}{\numberline {5.2.2}Generisanje misija grafovskim gramatikama}{26}}
\@writefile{lof}{\contentsline {figure}{\numberline {5.1}{\ignorespaces Primer grafovske gramatike i njenih pravila prezapisivanja.}}{27}}
\newlabel{Rules}{{5.1}{27}}
\@writefile{toc}{\contentsline {chapter}{\numberline {6}Unity dodatak za generisanje misija}{29}}
\@writefile{lof}{\addvspace {10\p@ }}
\@writefile{lot}{\addvspace {10\p@ }}
\@writefile{toc}{\contentsline {section}{\numberline {6.1}Glavni prozor}{29}}
\@writefile{lof}{\contentsline {figure}{\numberline {6.1}{\ignorespaces Glavni prozor dodatka.}}{29}}
\@writefile{toc}{\contentsline {subsection}{\numberline {6.1.1}Konfigurisanje algoritma}{30}}
\@writefile{toc}{\contentsline {subsubsection}{Po\IeC {\v c}etni graf}{30}}
\@writefile{lof}{\contentsline {figure}{\numberline {6.2}{\ignorespaces Prozor za definisanje po\IeC {\v c}etnog grafa.}}{30}}
\@writefile{toc}{\contentsline {subsubsection}{Broj iteracija}{30}}
\@writefile{toc}{\contentsline {subsubsection}{Prvi ili svaki izomorfizam}{31}}
\@writefile{toc}{\contentsline {subsubsection}{Pravila sa verovatno\IeC {\'c}om}{31}}
\@writefile{toc}{\contentsline {subsection}{\numberline {6.1.2}Manipulacija pravilima gramatike}{31}}
\@writefile{toc}{\contentsline {subsection}{\numberline {6.1.3}Pokretanje algoritma i rezultat}{31}}
\@writefile{toc}{\contentsline {section}{\numberline {6.2}Prozor za definisanje pravila gramatike}{31}}
\@writefile{toc}{\contentsline {subsubsection}{Definisanje leve i desne strane pravila}{31}}
\@writefile{lof}{\contentsline {figure}{\numberline {6.3}{\ignorespaces Prozor za definisanje pravila gramatike.}}{32}}
\@writefile{toc}{\contentsline {subsubsection}{Verovatno\IeC {\'c}a}{32}}
\@writefile{toc}{\contentsline {section}{\numberline {6.3}Renderovanje i manipulacija grafova}{32}}
\@writefile{toc}{\contentsline {section}{\numberline {6.4}Aplikacijski podaci}{33}}
\@writefile{toc}{\contentsline {section}{\numberline {6.5}Dvostruki potisak}{33}}
\@writefile{lol}{\contentsline {lstlisting}{\numberline {6.1}Pseudokod DPO algoritma}{33}}
\@writefile{toc}{\contentsline {subsection}{\numberline {6.5.1}Primeri misija dobijenih generisanjem}{35}}
\@writefile{toc}{\contentsline {subsubsection}{Primer 1.}{35}}
\@writefile{lof}{\contentsline {figure}{\numberline {6.4}{\ignorespaces Primer misije dobijene sekvencijalnom primenom pravila.}}{35}}
\newlabel{MissionGenerationExample01}{{6.4}{35}}
\@writefile{toc}{\contentsline {subsubsection}{Primer 2.}{36}}
\@writefile{lof}{\contentsline {figure}{\numberline {6.5}{\ignorespaces Primer misije dobijene sekvencijalnom primenom pravila.}}{36}}
\newlabel{MissionGenerationExample02}{{6.5}{36}}
\citation{houdiniengine}
\@writefile{toc}{\contentsline {chapter}{\numberline {7}Dalji razvoj}{37}}
\@writefile{lof}{\addvspace {10\p@ }}
\@writefile{lot}{\addvspace {10\p@ }}
\@writefile{toc}{\contentsline {chapter}{\numberline {8}Zaklju\IeC {\v c}ak}{38}}
\@writefile{lof}{\addvspace {10\p@ }}
\@writefile{lot}{\addvspace {10\p@ }}
\@input{chapters/Bibliografija.aux}
