\relax 
\bibcite{handbookofgraphgrammars}{1}
\bibcite{dikretnamatematika}{2}
\bibcite{pcg}{3}
\bibcite{subgraphisomorphism}{4}
\bibcite{extendingunity}{5}
\bibcite{complexity}{6}
\bibcite{speedtree}{7}
\bibcite{houdini}{8}
\bibcite{houdiniengine}{9}
\bibcite{left4dead}{10}
\@writefile{toc}{\contentsline {chapter}{Bibliografija}{39}}
\@setckpt{chapters/Bibliografija}{
\setcounter{page}{40}
\setcounter{equation}{0}
\setcounter{enumi}{3}
\setcounter{enumii}{0}
\setcounter{enumiii}{0}
\setcounter{enumiv}{10}
\setcounter{footnote}{0}
\setcounter{mpfootnote}{0}
\setcounter{part}{0}
\setcounter{chapter}{8}
\setcounter{section}{0}
\setcounter{subsection}{0}
\setcounter{subsubsection}{0}
\setcounter{paragraph}{0}
\setcounter{subparagraph}{0}
\setcounter{figure}{0}
\setcounter{table}{0}
\setcounter{parentequation}{0}
\setcounter{lstnumber}{31}
\setcounter{float@type}{8}
\setcounter{definition}{23}
\setcounter{prop}{1}
\setcounter{theorem}{0}
\setcounter{lstlisting}{0}
}
